⁣6. Survival analysis in HTA
…
.panel[
.panel-name[Processing (2)]

```r
> # simulated survival curve for the first of the nsim (=1 in this case...) simulations
> extr$S
```

```
[[1]]
# A tibble: 5,001 × 2
       t     S
   <int> <dbl>
 1     0 1    
 2     1 0.998
 3     2 0.996
 4     3 0.994
 5     4 0.992
 6     5 0.990
 7     6 0.988
 8     7 0.987
 9     8 0.985
10     9 0.983
# … with 4,991 more rows
```
…
