⁣9. Markov models
…
.panel[
.panel-name[Output]

```
# A tibble: 810 × 13
      id  from    to trans Tstart Tstop  time  prog death status treat prog_t death_t
   <int> <dbl> <dbl> <dbl>  <dbl> <dbl> <dbl> <int> <int>  <dbl> <int>  <dbl>   <dbl>
 1   693     1     2     1      0 23.5  23.5      0     0      0     0  23.5    23.5 
 2    36     1     2     1      0 24.5  24.5      1     0      1     1  24.5    26   
 3   541     1     2     1      0 18.5  18.5      0     1      0     1  18.5    18.5 
 4   224     1     2     1      0 12.3  12.3      1     0      1     1  12.3    34   
 5   626     1     2     1      0 19.6  19.6      0     0      0     0  19.6    19.6 
 6   566     1     2     1      0 16.2  16.2      0     1      0     0  16.2    16.2 
 7   283     1     2     1      0 19.8  19.8      0     0      0     1  19.8    19.8 
 8   801     1     2     1      0 45    45        0     0      0     0  45      45   
 9   559     1     2     1      0  7.19  7.19     0     1      0     0   7.19    7.19
10   429     1     2     1      0 31    31        0     0      0     1  31      31   
# … with 800 more rows
```
…
.panel[
.panel-name[Output]

```
# A tibble: 810 × 13
      id  from    to trans Tstart Tstop  time  prog death status treat prog_t death_t
   <int> <dbl> <dbl> <dbl>  <dbl> <dbl> <dbl> <int> <int>  <dbl> <int>  <dbl>   <dbl>
 1   196     1     3     2      0 19.3  19.3      1     0      0     0  19.3    34.9 
 2   379     1     3     2      0 26.2  26.2      0     0      0     1  26.2    26.2 
 3   592     1     3     2      0 12.0  12.0      0     0      0     0  12.0    12.0 
 4    64     1     3     2      0 33.4  33.4      1     1      0     0  33.4    36.1 
 5   444     1     3     2      0 33    33        0     0      0     1  33      33   
 6   359     1     3     2      0 24    24        0     0      0     1  24      24   
 7    43     1     3     2      0  3.97  3.97     1     0      0     0   3.97    5.76
 8   234     1     3     2      0  6.16  6.16     1     1      0     1   6.16   30.7 
 9   198     1     3     2      0 18.2  18.2      1     0      0     1  18.2    34   
10   340     1     3     2      0 22.5  22.5      0     0      0     1  22.5    22.5 
# … with 800 more rows
```
…
.panel[
.panel-name[Output]

```
# A tibble: 248 × 13
      id  from    to trans Tstart Tstop  time  prog death status treat prog_t death_t
   <int> <dbl> <dbl> <dbl>  <dbl> <dbl> <dbl> <int> <int>  <dbl> <int>  <dbl>   <dbl>
 1    73     2     3     3  21.3   24.8  3.47     1     0      0     0  21.3     24.8
 2   131     2     3     3  40.7   48    7.32     1     0      0     1  40.7     48  
 3   245     2     3     3  12.6   45.1 32.5      1     0      0     0  12.6     45.1
 4    93     2     3     3  42.8   48    5.19     1     0      0     1  42.8     48  
 5   214     2     3     3  15.4   34   18.6      1     0      0     1  15.4     34  
 6    65     2     3     3  22.2   24.9  2.73     1     0      0     0  22.2     24.9
 7   151     2     3     3   5.93  14.5  8.55     1     1      1     1   5.93    14.5
 8    96     2     3     3  35.6   41    5.38     1     0      0     1  35.6     41  
 9   163     2     3     3  10.2   19.3  9.08     1     1      1     1  10.2     19.3
10   230     2     3     3  11.8   35   23.2      1     0      0     1  11.8     35  
# … with 238 more rows
```
…
